# Blender v2.90.1 OBJ File: ''
# www.blender.org
mtllib sofa.mtl
o sofa
v 92.358475 0.314917 -40.231186
v 93.547585 0.349604 -39.449287
v 95.227844 0.466147 -39.329262
v 95.502731 0.455546 34.749851
v 115.317368 77.708923 -45.253441
v -95.500984 0.504622 34.878548
v -95.497665 1.364105 36.926983
v 115.320496 0.262217 -38.887184
v 115.317230 77.709862 -38.891811
v 95.501839 18.442577 36.744389
v 95.335693 22.735401 34.425175
v -95.501183 18.414215 36.717785
v -115.323509 0.268775 -45.284649
v 115.326385 0.244426 -45.259972
v 95.498405 1.298351 36.917557
v -93.547585 0.349604 -39.449287
v -92.622383 0.271080 -40.096443
v -95.227844 0.466147 -39.329262
v -115.309433 77.715370 -45.268360
v -115.317986 0.255481 -38.880993
v -115.322296 77.708359 -38.905689
v -95.335182 22.691538 34.445244
v 0.576799 77.636826 -18.945747
v 0.696585 92.505791 -20.547300
v 2.035419 96.658295 -22.462070
v 1.182051 97.464439 -29.973488
v 0.192232 96.105019 -25.524445
v 0.487862 95.455505 -34.311089
v 106.818138 92.267082 -35.243275
v 113.021889 91.839317 -30.027422
v 113.311798 82.528168 -35.530869
v 107.562859 82.942032 -38.235203
v 84.108589 96.264702 -35.655304
v 99.959305 98.009346 -30.089565
v 107.049698 95.564171 -31.922693
v 115.328140 81.551186 -32.613468
v 115.544754 86.128212 -28.000265
v 112.668816 91.098839 -20.668156
v 114.040001 86.597694 -18.333849
v 28.216335 88.804451 -16.618349
v 27.665339 98.937218 -30.143293
v 2.577362 89.906319 -17.624456
v 20.803743 93.838524 -19.443060
v 17.389584 97.161774 -23.253164
v 32.792152 95.751709 -36.073936
v 2.092520 38.429577 -36.022778
v 1.344784 37.895618 -31.308191
v 106.871017 97.277435 -24.866873
v 105.742546 96.673737 -21.954262
v 94.405106 95.283539 -18.631109
v 108.044106 87.214172 -13.940013
v 59.306587 95.578888 -35.945583
v 67.579643 98.695641 -30.774927
v 50.069931 96.924805 -20.520668
v 88.633324 99.187172 -26.459417
v 12.109756 37.797699 -18.528296
v 2.597093 93.888130 -36.266846
v 93.532692 38.375511 -35.348713
v 93.219902 37.795853 -29.381405
v 93.318687 37.960129 -18.392040
v 113.052971 75.403046 -16.761452
v 99.645821 82.551796 -12.967180
v 67.073845 88.805901 -14.439500
v 68.152061 93.473778 -16.743937
v 2.121941 86.090050 -38.002247
v 2.108030 40.733204 -37.704048
v 12.980433 39.230118 -38.675362
v 30.847410 90.703766 -38.971310
v 14.102521 81.302940 -39.450310
v 99.396652 89.066383 -38.222923
v 80.152611 90.087372 -38.790894
v 82.428192 61.566654 -39.243427
v 93.813492 60.107166 -37.201191
v 93.349525 80.858711 -39.891289
v 14.387866 56.089489 -39.458488
v 69.727257 75.912422 -39.789276
v 93.100281 39.276649 -37.082985
v 0.400873 39.212704 -34.428673
v 0.583075 85.329292 -36.146477
v 22.741314 63.002602 -13.976997
v 2.025453 53.992023 -16.170305
v 16.573895 39.340641 -11.937576
v 4.106519 39.441654 -14.895646
v 54.487137 39.369701 -11.278687
v 78.281281 62.938255 -11.186302
v 72.960732 58.022896 -10.670586
v 16.162430 47.676506 -12.199096
v 93.830254 74.265282 -12.603848
v 70.022629 79.877525 -12.342123
v 18.440784 76.872635 -15.065912
v 113.855103 62.966991 -21.151451
v 113.536270 63.939087 -17.817120
v 114.248085 73.458923 -35.896023
v 109.035202 72.549263 -38.047806
v 108.325310 65.153564 -14.657536
v 104.452087 63.617023 -34.277641
v 112.994011 63.780701 -31.794653
v 93.157639 61.583759 -13.827722
v 99.373924 66.726990 -14.189853
v 3.366641 66.894562 -17.105234
v 1.576701 38.475380 -17.548779
v 0.796473 65.153694 -19.931046
v 114.337273 63.931839 -27.004066
v 115.368599 69.611450 -25.217493
v 98.900917 69.349297 -38.288761
v 107.209129 64.783630 -35.938354
v 0.301168 39.070679 -21.424053
v 99.429428 63.387478 -36.164658
v 104.425240 63.586128 -18.824978
v 100.469055 62.836845 -17.271971
v 107.278549 76.446770 -12.377457
v 95.533295 58.373112 -18.522448
v 98.830856 61.460098 -33.261036
v 95.656715 58.799614 -34.765579
v 94.670357 58.729355 -15.656150
v 94.425842 54.457630 -35.122051
v 92.533249 39.389137 -12.994552
v 46.880882 39.784134 -39.047440
v 0.631475 51.329609 -18.020636
v 81.175056 41.833355 -11.581102
v -1.345874 79.082039 -17.460545
v -0.430227 94.295547 -21.837679
v -0.057288 96.667282 -29.479073
v -0.700945 95.815842 -33.853546
v -108.152557 86.450249 -38.983788
v -114.095207 88.792923 -36.968788
v -107.685188 93.736656 -37.444344
v -114.081055 93.890099 -33.711632
v -115.370728 92.347290 -32.675823
v -116.179443 84.786964 -32.786430
v -115.779251 91.839294 -24.966091
v -114.553513 93.176338 -20.687992
v -115.873405 84.059822 -19.920740
v -33.244759 87.217102 -15.643517
v -11.865264 83.769432 -15.771276
v -2.282237 91.712494 -18.573019
v -15.643313 98.455246 -28.722488
v -2.149559 95.152626 -36.227272
v -2.194923 95.990410 -21.271967
v -1.168112 97.101448 -23.672165
v -1.516692 37.859291 -32.017921
v -107.560623 96.774170 -25.150253
v -107.317787 94.693459 -16.622887
v -107.675117 96.001213 -33.501404
v -90.046577 97.008415 -25.301733
v -78.201584 96.958954 -33.495560
v -56.077087 97.806374 -32.663750
v -60.263454 99.837875 -26.214088
v -58.185059 99.545517 -20.767529
v -84.128960 95.168884 -16.741762
v -87.048973 37.908459 -34.391376
v -92.370979 38.582031 -26.099680
v -84.341545 37.895050 -18.329611
v -114.088577 88.412521 -16.557690
v -106.952805 87.493652 -12.793842
v -101.976875 91.934586 -14.183460
v -79.441078 77.704262 -10.666659
v -69.904694 92.416565 -14.332784
v -56.645245 96.396767 -16.997545
v -2.237153 38.919708 -37.365200
v -16.032667 40.495205 -39.050629
v -13.342747 90.192162 -39.166286
v -74.579231 95.038589 -37.072418
v -96.087357 86.862984 -39.690952
v -90.356331 92.004456 -39.097713
v -93.497055 59.278400 -37.192749
v -84.791275 63.672855 -39.187447
v -84.830368 39.494843 -38.062454
v -15.020316 59.394047 -39.552807
v -98.643990 66.908386 -38.250984
v -0.474853 39.163677 -34.599693
v -0.575747 82.982803 -36.148216
v -2.081600 83.925705 -38.202976
v -14.232060 60.234634 -14.716917
v -1.402842 52.384075 -16.381714
v -2.621893 64.659927 -16.987677
v -16.366713 39.623402 -12.226924
v -54.864120 39.320961 -11.025659
v -91.736382 39.705936 -13.261054
v -86.475410 61.661068 -10.786977
v -50.695255 47.085728 -11.492470
v -58.552917 63.407646 -11.307777
v -4.135382 38.829952 -14.415008
v -113.244514 68.799820 -16.979614
v -107.221375 69.389465 -13.155072
v -107.693123 64.694443 -15.250390
v -98.832733 64.953949 -13.324270
v -95.168198 58.010506 -16.130798
v -94.892906 61.000710 -13.454878
v -0.185390 64.648911 -21.478052
v -1.611794 38.239960 -17.211782
v -113.211983 64.427788 -30.897076
v -113.635979 66.981384 -35.338810
v -114.868942 66.979141 -27.491123
v -106.805504 64.811142 -37.158272
v -103.708420 63.263233 -32.831013
v -0.043957 39.351315 -22.296700
v -100.121185 63.597374 -36.653999
v -100.726639 62.858505 -16.415766
v -96.964363 60.272770 -34.421089
v -112.857735 64.076485 -23.306372
v -94.639397 55.819157 -34.905373
v -93.280312 41.349640 -15.537804
v -92.556740 39.268383 -36.406952
v -93.455505 40.588196 -32.523155
v -80.631485 41.965721 -11.664427
v 93.096863 37.709881 33.935478
v 93.402534 28.270098 34.029671
v 92.049355 27.113297 37.029148
v 92.217644 21.934889 31.192492
v 70.995552 45.794163 18.997770
v 87.667274 42.552235 29.257381
v 90.952637 40.938969 33.380783
v 67.443047 39.529041 36.362553
v 90.136566 39.485317 35.545593
v 90.544731 36.508991 36.877014
v 88.075233 24.186613 36.975338
v 87.763344 29.735884 37.842247
v 59.256268 32.606884 39.357567
v 60.694508 24.201626 37.157116
v 37.675365 33.396107 41.037128
v 36.157738 40.224953 38.978092
v 92.227852 26.351259 -21.001072
v 91.834419 40.891197 -20.846653
v 42.876644 41.977245 33.654205
v 47.369713 42.773540 27.276634
v 88.219887 20.845167 33.312782
v 87.297073 20.229244 27.022169
v 90.223549 22.029295 35.561203
v 49.684666 18.954622 27.884840
v 49.829659 19.548731 -19.563782
v 87.098389 20.133839 -0.387784
v 46.239731 18.769297 -0.760638
v 91.296921 21.424809 -19.673540
v 87.212242 20.667845 -19.139545
v 92.921211 23.851654 -19.391733
v 66.785088 48.501747 -4.292190
v 50.006565 45.948086 -19.565228
v 40.935009 45.836849 9.124491
v 81.676353 45.574543 13.032033
v 81.788506 47.458786 -10.098919
v 91.082031 43.259365 0.231791
v 92.763992 40.510025 -1.304426
v 90.068115 44.366100 -19.558994
v 91.176498 42.614349 20.954380
v 93.295654 36.754166 -19.500563
v 91.989014 43.825489 -10.044784
v 87.225922 45.869034 -19.651711
v 57.658962 46.991150 -18.393467
v 0.890441 37.784733 27.177254
v 0.011905 34.029434 32.512760
v -0.396554 27.987028 29.779728
v 1.575102 35.209789 35.781784
v 0.320070 22.439020 32.104832
v 0.744215 24.806602 35.783085
v 19.829695 40.890316 22.991947
v 13.729477 39.255104 32.397930
v 3.378610 40.319538 17.381771
v 3.867204 38.835072 28.692062
v 22.454857 40.494343 36.688843
v 8.242750 36.179161 36.280754
v 21.331781 37.682522 39.734333
v 22.087215 21.159079 36.332474
v 20.572948 27.682547 39.711124
v 2.127484 21.620621 35.896362
v 3.901322 31.820375 37.787418
v 1.057161 24.782232 -20.271513
v 3.998939 24.620968 -21.040697
v 3.606028 39.616493 -20.890650
v 1.068148 40.731522 -19.990086
v 4.960159 19.269627 32.371342
v 12.353955 18.491402 12.094897
v 1.745073 20.643208 -19.631071
v 6.177918 19.789045 -19.787218
v 0.362338 22.489948 -18.350174
v 1.676443 19.736212 23.745411
v 24.628855 44.986786 -9.163307
v 2.444194 43.965641 -19.849632
v 9.365496 43.161533 -2.966257
v 2.658502 40.739918 3.932616
v 0.460715 39.547001 -0.181423
v -0.219752 37.231247 -13.247534
v -0.288358 27.930893 -17.657396
v 1.364756 43.858696 -17.722582
v 6.700625 45.044647 -18.549074
v 5.699291 19.110870 -18.491653
v -92.395027 38.227924 30.374641
v -93.106064 34.907948 32.784561
v -93.364059 29.114796 33.175179
v -91.149025 34.963074 36.248322
v -91.433250 27.061029 36.102535
v -92.736946 23.164219 30.255404
v -68.498978 45.585690 8.412760
v -87.683891 43.348495 23.270874
v -72.601883 42.903477 30.432768
v -90.425995 41.818089 28.848135
v -87.277458 39.917538 35.577065
v -67.779472 40.293354 34.318157
v -73.099480 35.441162 37.211739
v -69.654747 22.362431 35.532276
v -68.308289 29.379848 38.176552
v -88.214188 26.822287 37.714886
v -88.842949 37.933350 36.682098
v -43.673523 21.447252 35.938408
v -56.576756 33.875908 39.578983
v -42.196556 37.309067 39.518185
v -92.643433 23.418415 -19.630493
v -89.094002 23.437941 -20.780489
v -91.872574 33.132191 -21.092701
v -39.555489 39.359741 36.683403
v -61.063461 42.952469 26.909672
v -91.116837 21.061993 29.680508
v -87.974373 22.750942 35.499050
v -73.443535 20.197464 32.898582
v -50.083546 18.957663 27.758747
v -51.674007 19.252861 -18.948650
v -90.546394 21.720730 -19.868330
v -91.318130 21.368071 -17.552122
v -87.020981 20.021938 11.608517
v -77.133766 45.262642 -4.535704
v -83.026001 43.412014 -20.580696
v -49.435844 44.816418 7.939282
v -85.769035 45.381367 -19.190790
v -86.855690 43.723129 1.271269
v -89.121239 44.874844 -12.898765
v -92.467438 40.343925 -9.656041
v -91.660583 39.473488 -20.089386
v -90.550674 41.763737 0.325358
v -93.418549 29.691751 -19.650928
v -93.150528 37.582027 -11.116176
v -79.878777 46.410641 -19.153727
v -87.228340 20.598581 -18.579443
v -0.768704 37.447613 30.844189
v 0.321243 33.393192 29.788595
v -0.400306 31.453310 34.213543
v -2.127376 34.762161 35.924347
v -0.098720 22.833817 31.522785
v -28.181839 39.357056 25.610706
v -5.776928 40.849403 23.674149
v -7.521917 39.674843 29.440994
v -20.192938 37.849369 34.009876
v -15.638515 34.542576 36.807442
v -2.018064 23.801525 36.888947
v -31.467241 28.864981 38.763325
v -4.365725 31.079094 37.436363
v -0.433743 26.624207 -19.940332
v -1.378842 40.558403 -19.909628
v -3.351540 25.046772 -21.050135
v -4.184870 38.814579 -20.961792
v -1.656479 20.046988 28.449236
v -4.842368 19.279913 32.309719
v -2.413104 21.057901 35.398830
v -13.464756 18.662739 27.455475
v -13.660501 18.573318 -0.483972
v -1.719983 20.288691 -19.430773
v -5.204213 19.315556 -19.436079
v -0.326941 22.546896 -18.258276
v -46.996117 44.780235 -5.319555
v -8.668870 42.317001 2.288598
v -5.907479 44.390736 -19.759291
v -3.421523 40.496529 4.253481
v -0.731688 38.633209 7.186856
v -2.469754 43.496490 -19.507166
v -17.665991 42.678085 9.953353
v 0.358290 27.367085 -7.070978
v 0.184904 35.506405 7.994885
v -0.174534 41.392052 -14.775897
v -1.840442 43.958927 -15.165024
v -14.360621 45.317585 -18.612009
v 94.709099 54.854240 -39.308640
v 96.197075 58.436161 -39.309364
v 94.111191 0.826599 -39.309166
v 94.213486 0.624423 39.862770
v 114.772522 0.631635 39.990250
v 114.815178 60.328644 -39.308720
v 114.666405 60.006458 40.294144
v 102.328400 61.511936 40.100483
v 94.907913 54.690987 40.379082
v 114.742607 0.462108 -39.308907
v 113.475891 0.214958 40.451916
v 96.123962 0.220059 40.446651
v 98.242844 0.229308 -39.308796
v 96.788132 59.151760 39.823383
v 106.538521 63.180443 -39.308681
v 99.614914 61.479210 -39.308983
v 103.901535 62.692280 39.212051
v 113.383286 62.679543 -39.309151
v 113.353081 62.581627 39.541016
v -94.708870 54.850830 -39.308617
v -96.196777 58.435791 -39.309368
v -114.778961 0.646987 39.995228
v -114.804825 60.160255 39.816830
v -94.111267 0.826493 -39.309162
v -114.815025 60.325294 -39.308670
v -96.117386 57.662479 40.391586
v -113.596542 0.222079 40.445198
v -113.917114 60.979874 40.382133
v -94.726852 54.712822 39.793678
v -114.742615 0.461977 -39.308895
v -98.245331 0.229260 -39.308796
v -96.114670 0.220799 40.446171
v -98.345833 60.432148 39.202991
v -106.533722 63.179855 -39.308666
v -103.786530 62.576458 39.508690
v -113.381195 62.679985 -39.309052
v -113.338676 62.693737 39.089905
v -94.212807 0.624728 39.862228
v -99.614914 61.479210 -39.308983
v -93.499092 23.162552 -38.716305
v 93.456589 23.217001 -38.723885
v 95.288025 22.566006 -38.313324
v -95.288025 22.566006 -38.313324
vt 0.402601 0.393221
vt 0.410503 0.558806
vt 0.399282 0.391377
vt 0.406339 0.393403
vt 0.505080 0.003275
vt 0.503606 0.019777
vt 0.023422 0.019638
vt 0.697424 0.612067
vt 0.691474 0.610039
vt 0.701604 0.602234
vt 0.682504 0.613213
vt 0.673439 0.610093
vt 0.501447 0.901990
vt 0.487238 0.901810
vt 0.487800 0.882493
vt 0.752870 0.325103
vt 0.768748 0.324902
vt 0.724113 0.337366
vt 0.743870 0.466539
vt 0.739318 0.453366
vt 0.749290 0.444353
vt 0.726907 0.464846
vt 0.723197 0.454390
vt 0.688097 0.266223
vt 0.597215 0.287807
vt 0.542541 0.289811
vt 0.540858 0.308863
vt 0.537249 0.298293
vt 0.728119 0.319715
vt 0.764122 0.311370
vt 0.760216 0.304695
vt 0.775901 0.299083
vt 0.781418 0.317105
vt 0.597638 0.328571
vt 0.577047 0.308281
vt 0.647246 0.311705
vt 0.741545 0.300870
vt 0.872561 0.558406
vt 0.876768 0.584956
vt 0.847763 0.584680
vt 0.838661 0.386409
vt 0.834526 0.584022
vt 0.764864 0.284273
vt 0.779609 0.287169
vt 0.581459 0.300294
vt 0.684046 0.296607
vt 0.262531 0.878329
vt 0.323326 0.885501
vt 0.261387 0.895085
vt 0.471682 0.888887
vt 0.457996 0.906882
vt 0.431816 0.887030
vt 0.831309 0.558870
vt 0.749520 0.273512
vt 0.741101 0.254365
vt 0.256184 0.896157
vt 0.260660 0.993617
vt 0.287734 0.955034
vt 0.693959 0.220259
vt 0.585409 0.230934
vt 0.568094 0.197457
vt 0.709745 0.229519
vt 0.782807 0.263481
vt 0.786997 0.240490
vt 0.602128 0.508197
vt 0.598533 0.526465
vt 0.576939 0.529554
vt 0.539064 0.211532
vt 0.541227 0.240348
vt 0.581446 0.260913
vt 0.534364 0.264627
vt 0.533473 0.236722
vt 0.752641 0.427694
vt 0.733017 0.422200
vt 0.720950 0.413828
vt 0.506176 0.938222
vt 0.490824 0.937923
vt 0.489733 0.923419
vt 0.569346 0.510074
vt 0.564322 0.500736
vt 0.600715 0.494773
vt 0.753394 0.238193
vt 0.772681 0.240613
vt 0.767035 0.263344
vt 0.568433 0.488045
vt 0.608013 0.497137
vt 0.562478 0.518577
vt 0.602386 0.486549
vt 0.607292 0.515131
vt 0.837505 0.351747
vt 0.875338 0.343740
vt 0.881315 0.343756
vt 0.740203 0.227210
vt 0.361956 0.996473
vt 0.406607 0.917248
vt 0.439159 0.949885
vt 0.384056 0.874187
vt 0.850620 0.387382
vt 0.871772 0.387671
vt 0.835207 0.385941
vt 0.830935 0.339583
vt 0.889069 0.338596
vt 0.882042 0.387186
vt 0.701529 0.485086
vt 0.700122 0.512408
vt 0.693829 0.486428
vt 0.712458 0.181600
vt 0.658791 0.178296
vt 0.737880 0.178123
vt 0.283204 0.996007
vt 0.260406 0.996843
vt 0.441968 0.873633
vt 0.472171 0.933317
vt 0.472884 0.941899
vt 0.461363 0.952092
vt 0.458777 0.997199
vt 0.532619 0.211229
vt 0.542124 0.180213
vt 0.572258 0.179277
vt 0.254734 0.996786
vt 0.528246 0.609713
vt 0.516196 0.610689
vt 0.514824 0.603706
vt 0.253945 0.747939
vt 0.258188 0.747078
vt 0.258814 0.756411
vt 0.271636 0.761363
vt 0.271644 0.746445
vt 0.740634 0.399916
vt 0.747923 0.400898
vt 0.724236 0.401570
vt 0.750375 0.382224
vt 0.788248 0.157733
vt 0.763383 0.164407
vt 0.758220 0.150509
vt 0.785095 0.136553
vt 0.787107 0.146456
vt 0.553618 0.161012
vt 0.540140 0.155839
vt 0.557543 0.143620
vt 0.544944 0.130384
vt 0.537588 0.153429
vt 0.658321 0.152722
vt 0.668367 0.165530
vt 0.618715 0.167038
vt 0.663154 0.140375
vt 0.782083 0.130119
vt 0.594923 0.147755
vt 0.607163 0.130820
vt 0.784396 0.550175
vt 0.766933 0.535847
vt 0.801335 0.532147
vt 0.812677 0.548715
vt 0.776079 0.354751
vt 0.538040 0.110674
vt 0.545962 0.118100
vt 0.716764 0.106002
vt 0.637420 0.120444
vt 0.621065 0.090088
vt 0.665454 0.129992
vt 0.782236 0.121961
vt 0.499994 0.766162
vt 0.475678 0.753708
vt 0.498726 0.743944
vt 0.763950 0.354488
vt 0.762264 0.550310
vt 0.759375 0.529509
vt 0.289513 0.804705
vt 0.300968 0.764194
vt 0.318139 0.812405
vt 0.758290 0.049255
vt 0.661794 0.059194
vt 0.571482 0.063029
vt 0.600425 0.057368
vt 0.554225 0.076752
vt 0.560578 0.112410
vt 0.759577 0.103076
vt 0.723902 0.343384
vt 0.732756 0.348755
vt 0.719821 0.349765
vt 0.749627 0.353475
vt 0.257426 0.801643
vt 0.270381 0.806028
vt 0.252736 0.762445
vt 0.542076 0.044322
vt 0.538233 0.022873
vt 0.558369 0.043245
vt 0.546762 0.488031
vt 0.545270 0.582679
vt 0.571819 0.016605
vt 0.534793 0.006740
vt 0.286277 0.809764
vt 0.551438 0.068008
vt 0.572932 0.003984
vt 0.529472 0.032920
vt 0.528118 0.016602
vt 0.570512 0.121386
vt 0.560741 0.127333
vt 0.525860 0.004185
vt 0.308314 0.748600
vt 0.575371 0.032958
vt 0.568192 0.043825
vt 0.794521 0.217518
vt 0.754374 0.221072
vt 0.753458 0.211922
vt 0.579911 0.054267
vt 0.472212 0.820735
vt 0.342594 0.741709
vt 0.336793 0.735195
vt 0.383900 0.733999
vt 0.751072 0.176444
vt 0.760698 0.180175
vt 0.747331 0.219326
vt 0.772828 0.174685
vt 0.795231 0.180892
vt 0.321320 0.863544
vt 0.470664 0.860544
vt 0.500207 0.862308
vt 0.299473 0.820779
vt 0.800774 0.176977
vt 0.801555 0.223468
vt 0.519924 0.486362
vt 0.510703 0.511723
vt 0.511286 0.484077
vt 0.789694 0.006693
vt 0.787353 0.034819
vt 0.782792 0.006713
vt 0.609565 0.010450
vt 0.671763 0.027785
vt 0.270097 0.739606
vt 0.909633 0.677896
vt 0.909326 0.669676
vt 0.921606 0.678694
vt 0.884394 0.688409
vt 0.876816 0.697505
vt 0.837615 0.720641
vt 0.891331 0.685642
vt 0.885391 0.711453
vt 0.889418 0.649748
vt 0.826871 0.656124
vt 0.821158 0.638163
vt 0.884500 0.660565
vt 0.896053 0.658524
vt 0.887405 0.677474
vt 0.840398 0.678180
vt 0.772315 0.658967
vt 0.788282 0.685979
vt 0.881374 0.965737
vt 0.884140 0.980111
vt 0.798564 0.968195
vt 0.888533 0.984589
vt 0.820223 0.992049
vt 0.741343 0.991730
vt 0.881994 0.866900
vt 0.802501 0.866382
vt 0.889977 0.866200
vt 0.882582 0.906944
vt 0.792408 0.699149
vt 0.783710 0.737122
vt 0.835907 0.765363
vt 0.865748 0.728884
vt 0.887682 0.757867
vt 0.866277 0.775759
vt 0.894757 0.758042
vt 0.889250 0.797271
vt 0.897643 0.796128
vt 0.915182 0.803613
vt 0.801141 0.798086
vt 0.822166 0.795451
vt 0.877581 0.792426
vt 0.887371 0.776525
vt 0.884458 0.792832
vt 0.750428 0.780077
vt 0.793714 0.906215
vt 0.630639 0.601956
vt 0.628280 0.609708
vt 0.622944 0.590388
vt 0.649307 0.610591
vt 0.643879 0.596814
vt 0.654768 0.602596
vt 0.723754 0.685879
vt 0.742521 0.679074
vt 0.734986 0.706758
vt 0.700713 0.691942
vt 0.711576 0.674459
vt 0.739456 0.670721
vt 0.735934 0.650794
vt 0.699198 0.665372
vt 0.693698 0.647357
vt 0.690202 0.650933
vt 0.695849 0.673615
vt 0.735211 0.638346
vt 0.772335 0.673349
vt 0.696860 0.959149
vt 0.706607 0.976180
vt 0.698279 0.984575
vt 0.692225 0.978383
vt 0.693991 0.987840
vt 0.720908 0.933702
vt 0.699637 0.858338
vt 0.707863 0.865274
vt 0.699363 0.865638
vt 0.693984 0.865264
vt 0.694328 0.859588
vt 0.706952 0.868957
vt 0.703206 0.811811
vt 0.697262 0.806849
vt 0.703451 0.803191
vt 0.702316 0.720980
vt 0.692411 0.695445
vt 0.714928 0.761956
vt 0.697815 0.750956
vt 0.629372 0.502478
vt 0.642531 0.499198
vt 0.658422 0.493160
vt 0.700547 0.799128
vt 0.713005 0.796247
vt 0.621641 0.530777
vt 0.618791 0.497681
vt 0.043964 0.790664
vt 0.049542 0.783051
vt 0.049313 0.797657
vt 0.031461 0.786909
vt 0.029254 0.777284
vt 0.043232 0.781045
vt 0.060156 0.815420
vt 0.089802 0.794465
vt 0.095913 0.842888
vt 0.059804 0.789886
vt 0.099160 0.784327
vt 0.055695 0.801149
vt 0.056448 0.785445
vt 0.054738 0.860337
vt 0.092523 0.758275
vt 0.088156 0.773894
vt 0.051723 0.762959
vt 0.177268 0.756413
vt 0.120803 0.764409
vt 0.041615 0.933495
vt 0.048930 0.918450
vt 0.050858 0.936472
vt 0.237283 0.911664
vt 0.243654 0.941025
vt 0.071628 0.902828
vt 0.158453 0.780750
vt 0.153286 0.772581
vt 0.509922 0.462496
vt 0.521243 0.471703
vt 0.512316 0.476502
vt 0.521493 0.477606
vt 0.559665 0.475643
vt 0.523024 0.421076
vt 0.599766 0.455419
vt 0.515487 0.459398
vt 0.515727 0.358108
vt 0.510867 0.351820
vt 0.120099 0.803173
vt 0.139364 0.841679
vt 0.146701 0.870431
vt 0.065994 0.897113
vt 0.077247 0.896822
vt 0.059899 0.885903
vt 0.062247 0.858087
vt 0.053195 0.902751
vt 0.084057 0.868286
vt 0.019256 0.909197
vt 0.033814 0.904149
vt 0.034486 0.909795
vt 0.051148 0.880987
vt 0.044327 0.885145
vt 0.613043 0.358294
vt 0.523824 0.356343
vt 0.517313 0.353254
vt 0.560589 0.538119
vt 0.566316 0.541766
vt 0.554736 0.549673
vt 0.582540 0.536972
vt 0.585127 0.546636
vt 0.563262 0.552159
vt 0.203398 0.783144
vt 0.235239 0.805220
vt 0.183616 0.805358
vt 0.212122 0.771677
vt 0.242708 0.772964
vt 0.246316 0.786775
vt 0.230221 0.792063
vt 0.244546 0.749418
vt 0.238734 0.764040
vt 0.149625 0.741405
vt 0.249195 0.940806
vt 0.243842 0.905407
vt 0.713264 0.466125
vt 0.706522 0.471651
vt 0.708407 0.457980
vt 0.552595 0.467922
vt 0.682713 0.455844
vt 0.708615 0.476749
vt 0.615016 0.477184
vt 0.698382 0.354883
vt 0.518810 0.347367
vt 0.711742 0.353908
vt 0.706319 0.354394
vt 0.711382 0.347943
vt 0.707198 0.347027
vt 0.208427 0.835978
vt 0.228656 0.852864
vt 0.231940 0.901247
vt 0.241357 0.849410
vt 0.560321 0.598997
vt 0.578656 0.629909
vt 0.551023 0.649162
vt 0.552960 0.601099
vt 0.589029 0.654539
vt 0.553942 0.658895
vt 0.582494 0.658903
vt 0.240265 0.893415
vt 0.238632 0.901271
vt 0.214769 0.899593
vt 0.246107 0.893849
vt 0.682734 0.394427
vt 0.415984 0.694255
vt 0.415763 0.688525
vt 0.428618 0.698442
vt 0.825803 0.198523
vt 0.826252 0.317462
vt 0.823463 0.318874
vt 0.993370 0.180747
vt 0.830703 0.168168
vt 0.993417 0.165124
vt 0.827058 0.187222
vt 0.826134 0.174279
vt 0.829829 0.150150
vt 0.827362 0.145027
vt 0.993322 0.190459
vt 0.454413 0.392966
vt 0.454835 0.563103
vt 0.453350 0.563684
vt 0.513957 0.993258
vt 0.517464 0.855503
vt 0.518452 0.858898
vt 0.499058 0.700998
vt 0.495372 0.572137
vt 0.500254 0.699323
vt 0.518719 0.834754
vt 0.683813 0.823264
vt 0.683859 0.838882
vt 0.683761 0.853670
vt 0.520940 0.853474
vt 0.502584 0.881430
vt 0.489049 0.874663
vt 0.009430 0.730611
vt 0.001935 0.565967
vt 0.006432 0.564863
vt 0.514812 0.539533
vt 0.700698 0.542617
vt 0.667125 0.488423
vt 0.703543 0.569698
vt 0.019805 0.193063
vt 0.001424 0.195025
vt 0.005151 0.017497
vt 0.507356 0.192955
vt 0.018963 0.209133
vt 0.022071 0.003240
vt 0.009488 0.396224
vt 0.003253 0.559271
vt 0.005863 0.214883
vt 0.498493 0.214879
vt 0.500533 0.391545
vt 0.006916 0.398038
vt 0.525701 0.195027
vt 0.521981 0.017514
vt 0.003301 0.398313
vt 0.508217 0.209123
vt 0.998207 0.994986
vt 0.990675 0.995125
vt 0.990299 0.654887
vt 0.998204 0.655019
vt 0.948177 0.997267
vt 0.946539 0.654495
vt 0.003754 0.391534
vt 0.506596 0.903132
vt 0.537879 0.324661
vt 0.537616 0.333613
vt 0.601084 0.338476
vt 0.683094 0.330191
vt 0.656099 0.339639
vt 0.681938 0.285809
vt 0.258339 0.873394
vt 0.287190 0.904297
vt 0.327528 0.872332
vt 0.888451 0.552160
vt 0.890302 0.464861
vt 0.839505 0.587524
vt 0.503893 0.920575
vt 0.738284 0.408935
vt 0.748145 0.409273
vt 0.721616 0.407719
vt 0.570346 0.528695
vt 0.671260 0.485218
vt 0.668011 0.588366
vt 0.556987 0.503025
vt 0.554591 0.485906
vt 0.562204 0.487436
vt 0.610886 0.485906
vt 0.829659 0.497968
vt 0.590153 0.529886
vt 0.838759 0.340826
vt 0.882688 0.579885
vt 0.535257 0.180028
vt 0.787009 0.124445
vt 0.538777 0.609767
vt 0.723224 0.386468
vt 0.785954 0.094762
vt 0.538089 0.078716
vt 0.806464 0.354109
vt 0.503177 0.739312
vt 0.505431 0.767701
vt 0.812496 0.358856
vt 0.819239 0.473554
vt 0.769044 0.351050
vt 0.785340 0.062629
vt 0.816843 0.384522
vt 0.941764 0.998364
vt 0.941152 0.654105
vt 0.792179 0.063500
vt 0.542241 0.484716
vt 0.746570 0.343716
vt 0.509895 0.566651
vt 0.581228 0.004137
vt 0.580231 0.015628
vt 0.534501 0.044063
vt 0.553868 0.047599
vt 0.586781 0.006519
vt 0.663333 0.003322
vt 0.755247 0.006491
vt 0.506267 0.863115
vt 0.303446 0.863629
vt 0.883959 0.683298
vt 0.894407 0.975471
vt 0.898313 0.829224
vt 0.700642 0.843266
vt 0.893505 0.989923
vt 0.885282 0.990815
vt 0.892501 0.858671
vt 0.894779 0.863943
vt 0.926999 0.801381
vt 0.693606 0.842787
vt 0.690121 0.760594
vt 0.622461 0.488766
vt 0.656026 0.488596
vt 0.016585 0.788680
vt 0.093762 0.748396
vt 0.043531 0.765167
vt 0.699770 0.465311
vt 0.249361 0.842222
vt 0.452666 0.570748
vt 0.453409 0.697554
vt 0.415058 0.570995
vt 0.454211 0.572307
vt 0.993317 0.198799
vt 0.990759 0.317963
vt 0.416542 0.562877
vt 0.420117 0.393447
vt 0.413849 0.393435
vt 0.413804 0.562029
vt 0.993321 0.144390
vt 0.993319 0.150344
vt 0.990928 0.010678
vt 0.823619 0.010154
vt 0.681206 0.686048
vt 0.683760 0.805211
vt 0.516947 0.806048
vt 0.516697 0.686546
vt 0.515758 0.811047
vt 0.683765 0.813552
vt 0.464550 0.579627
vt 0.461101 0.700641
vt 0.513911 0.685128
vt 0.462225 0.395259
vt 0.496523 0.395740
vt 0.500109 0.565167
vt 0.462955 0.565914
vt 0.502791 0.395729
vt 0.502836 0.564321
vt 0.461413 0.563650
vt 0.518642 0.820761
vt 0.683763 0.859617
vt 0.515335 0.817538
vt 0.681370 0.993329
vt 0.405669 0.564578
vt 0.402851 0.725005
vt 0.409863 0.565624
vn 0.0451 -0.9990 0.0002
vn 0.0006 -0.9814 0.1919
vn 0.0106 -0.9999 0.0018
vn 0.0692 -0.9976 -0.0004
vn -0.5773 -0.5782 0.5766
vn -0.5775 -0.5763 -0.5783
vn 0.5775 -0.5780 -0.5765
vn -0.3726 0.7744 0.5113
vn -0.8717 0.4718 0.1325
vn -0.8261 0.2750 0.4919
vn -0.4813 0.8688 -0.1164
vn -0.6964 0.5461 -0.4657
vn 0.6475 0.2191 -0.7299
vn 0.2773 0.1553 -0.9481
vn 0.3500 0.5168 -0.7813
vn 0.1312 0.9419 -0.3093
vn 0.3821 0.7941 -0.4726
vn 0.0391 0.7264 -0.6862
vn 0.7710 0.5659 -0.2920
vn 0.9754 0.2151 -0.0488
vn 0.9463 0.1084 -0.3046
vn 0.7158 0.5903 0.3729
vn 0.8305 0.2436 0.5009
vn -0.0226 0.1376 0.9902
vn -0.0346 0.3988 0.9164
vn -0.4137 0.2595 0.8727
vn 0.0250 0.9939 0.1073
vn 0.4077 0.9092 0.0847
vn 0.2603 0.8324 0.4893
vn -0.0217 0.9887 -0.1482
vn -0.0247 0.9072 0.4199
vn -0.0193 0.8612 0.5079
vn 0.0368 0.7438 0.6674
vn -0.0288 -0.9900 0.1379
vn -0.6347 -0.6545 0.4109
vn -0.3699 -0.9285 -0.0330
vn 0.6649 -0.7024 -0.2543
vn -0.3633 -0.7982 -0.4806
vn 0.3214 0.3639 0.8742
vn -0.0349 0.6237 0.7809
vn -0.0033 0.5850 0.8110
vn -0.2862 0.4832 -0.8274
vn -0.0179 0.2977 -0.9545
vn -0.4331 0.1136 -0.8942
vn 0.1141 0.3344 -0.9355
vn 0.0524 0.0415 -0.9978
vn 0.0065 0.2774 -0.9607
vn -0.0380 -0.6051 -0.7952
vn -0.0063 0.1598 0.9871
vn 0.0488 -0.0287 0.9984
vn -0.9144 0.0364 -0.4032
vn -0.5137 -0.2390 -0.8240
vn -0.0632 -0.0172 -0.9979
vn 0.0105 0.0522 0.9986
vn -0.0947 0.0957 0.9909
vn -0.1422 0.0897 0.9858
vn 0.0586 0.0376 0.9976
vn 0.7342 -0.0142 0.6788
vn 0.6239 -0.5755 0.5287
vn 0.1824 -0.9529 -0.2422
vn 0.5866 -0.7129 -0.3843
vn 0.6017 -0.7888 0.1257
vn -0.5672 0.0800 0.8197
vn -0.4532 0.0324 0.8908
vn -0.0949 0.0672 0.9932
vn -0.8787 -0.0089 0.4773
vn -0.9185 0.0299 0.3944
vn 0.7586 -0.1375 -0.6368
vn 0.9953 -0.0917 0.0313
vn 0.2542 -0.6114 -0.7494
vn 0.2854 -0.1691 -0.9434
vn 0.1358 -0.9840 0.1156
vn 0.3726 -0.8066 0.4589
vn 0.5372 -0.8258 -0.1718
vn 0.1253 -0.3065 0.9436
vn 0.2268 -0.5674 0.7916
vn 0.2969 -0.0234 0.9546
vn 0.5160 -0.8416 0.1598
vn 0.3286 -0.5602 -0.7604
vn 0.7887 -0.4834 -0.3799
vn 0.9698 -0.1113 -0.2169
vn 0.7907 -0.3193 0.5224
vn 0.3204 -0.1578 0.9340
vn 0.0105 -0.5279 -0.8493
vn 0.0007 0.0165 -0.9999
vn 0.0641 -0.0599 -0.9961
vn 0.0031 0.7015 -0.7127
vn 0.4952 -0.8684 -0.0255
vn 0.6689 -0.7308 0.1361
vn 0.5159 -0.4452 -0.7318
vn 0.3741 -0.2286 -0.8988
vn 0.5465 -0.5186 0.6576
vn -0.9309 -0.0034 0.3653
vn -0.9192 -0.3833 0.0901
vn 0.0763 -0.1617 0.9839
vn -0.0048 -0.6339 0.7734
vn 0.1183 -0.1868 -0.9752
vn -0.3813 -0.5098 0.7712
vn -0.0977 -0.5876 0.8032
vn -0.8704 -0.4219 -0.2538
vn 0.7423 0.6629 -0.0978
vn 0.5366 0.8012 0.2649
vn 0.8842 0.2601 0.3879
vn -0.9061 0.3717 -0.2021
vn -0.5932 0.7128 -0.3743
vn -0.6394 0.1633 -0.7513
vn -0.1923 0.0479 -0.9802
vn -0.1800 0.5901 -0.7870
vn -0.9313 0.3603 0.0526
vn -0.7141 0.6202 0.3246
vn -0.9635 -0.0070 0.2675
vn 0.6884 0.6276 -0.3636
vn 0.4190 0.5687 -0.7079
vn 0.0405 0.9927 -0.1135
vn -0.1580 0.9447 -0.2874
vn -0.1960 0.9778 0.0745
vn -0.0307 0.9938 -0.1069
vn 0.0024 0.9066 -0.4220
vn -0.0513 0.9430 -0.3288
vn -0.0042 0.9333 0.3590
vn 0.3246 0.6691 0.6685
vn -0.0456 0.9956 0.0816
vn -0.0466 0.8320 0.5528
vn -0.5837 -0.8115 0.0274
vn -0.0791 -0.9768 -0.1990
vn -0.0592 -0.9884 0.1401
vn -0.4845 -0.6032 0.6336
vn 0.3586 -0.9314 -0.0617
vn -0.7095 0.2205 0.6693
vn 0.0640 0.1519 0.9863
vn 0.0184 0.4091 0.9123
vn 0.0094 0.1066 0.9943
vn 0.0381 0.6151 0.7875
vn 0.4607 0.2970 0.8364
vn 0.5157 0.0633 -0.8545
vn 0.0498 0.2519 -0.9665
vn 0.4203 -0.5646 -0.7104
vn -0.5911 -0.5671 -0.5736
vn -0.0793 -0.5459 -0.8341
vn -0.1077 -0.1803 -0.9777
vn -0.0507 0.0592 -0.9970
vn -0.0657 -0.0594 -0.9961
vn 0.1162 0.0719 0.9906
vn 0.0551 0.0332 0.9979
vn -0.3227 -0.5887 0.7412
vn -0.1092 -0.0504 0.9927
vn -0.3236 -0.1730 0.9302
vn -0.2659 0.1994 0.9432
vn 0.0933 0.1354 0.9864
vn -0.5765 -0.8000 -0.1661
vn -0.9523 -0.3048 0.0125
vn -0.6890 -0.3942 -0.6083
vn -0.7723 -0.2911 0.5646
vn -0.2127 -0.6230 -0.7528
vn -0.9733 -0.0085 -0.2294
vn -0.2465 -0.9587 -0.1417
vn -0.5898 -0.7924 0.1556
vn 0.8527 -0.4382 -0.2843
vn 0.9380 0.0198 -0.3459
vn -0.3743 -0.8528 0.3643
vn -0.6538 -0.7044 -0.2765
vn -0.2758 -0.6356 -0.7211
vn -0.3535 -0.6983 0.6225
vn -0.9006 -0.3711 0.2261
vn -0.0383 0.4806 0.8761
vn -0.2328 0.7714 0.5922
vn -0.3915 -0.2351 -0.8897
vn -0.0153 0.3716 -0.9283
vn -0.9261 -0.1986 -0.3209
vn -0.4646 -0.3180 0.8265
vn 0.0625 -0.0146 -0.9979
vn -0.0045 0.7149 -0.6992
vn -0.9549 -0.2906 -0.0616
vn -0.9257 -0.2973 0.2340
vn 0.0357 -0.3897 -0.9202
vn 0.9279 -0.3639 0.0807
vn 0.6946 0.0505 0.7176
vn 0.6369 -0.6742 0.3738
vn 0.3386 -0.5542 0.7604
vn -0.0580 -0.1934 0.9794
vn 0.0340 0.0361 0.9988
vn 0.9728 -0.0944 0.2116
vn 0.6236 -0.1757 0.7617
vn 0.7443 -0.6568 0.1208
vn 0.4686 0.7925 0.3904
vn 0.1011 0.9591 0.2643
vn 0.0232 0.9823 0.1860
vn 0.8842 0.3019 0.3563
vn 0.6252 0.7779 0.0634
vn 0.0833 -0.3523 0.9322
vn 0.0609 0.0395 0.9974
vn 0.0221 -0.3563 0.9341
vn 0.1039 -0.0170 0.9944
vn 0.3902 0.2677 0.8809
vn 0.0339 0.6284 0.7771
vn 0.0352 0.0031 0.9994
vn -0.0163 0.9750 0.2214
vn 0.1724 -0.9843 0.0383
vn 0.1426 -0.9619 0.2333
vn 0.0187 -0.9935 0.1121
vn 0.4133 -0.6992 0.5833
vn 0.0033 -0.7315 0.6819
vn 0.0771 -0.9154 -0.3950
vn 0.0163 -0.7767 -0.6296
vn 0.4376 -0.7125 -0.5485
vn 0.1629 -0.9866 -0.0068
vn -0.0892 0.9900 0.1089
vn -0.0853 0.9899 0.1131
vn 0.0066 1.0000 0.0063
vn 0.1760 0.9804 0.0886
vn 0.6283 0.7755 0.0611
vn 0.1714 0.9851 -0.0119
vn 0.9517 0.3057 0.0300
vn 0.6096 0.2981 -0.7345
vn 0.9346 0.0900 -0.3441
vn 0.5000 -0.1096 -0.8591
vn -0.0565 0.7237 -0.6878
vn -0.0272 0.9254 -0.3781
vn 0.2061 0.7802 -0.5906
vn 0.7522 0.6589 0.0120
vn 0.5721 0.6780 -0.4616
vn -0.0612 0.9965 0.0563
vn 0.0188 -0.9997 -0.0167
vn -0.9515 0.2253 0.2094
vn -0.5784 0.5268 0.6229
vn -0.7563 0.6408 0.1321
vn -0.7752 -0.1318 0.6178
vn -0.9973 -0.0326 0.0659
vn -0.8895 -0.4337 0.1441
vn -0.1892 0.9559 0.2245
vn -0.1454 0.9169 0.3718
vn -0.0992 0.9856 0.1372
vn -0.2597 0.9337 0.2464
vn -0.2310 0.7402 0.6315
vn -0.1506 0.4352 0.8876
vn -0.0564 -0.2373 0.9698
vn -0.3250 0.1238 0.9376
vn -0.4685 -0.5857 0.6615
vn 0.0104 0.7049 0.7092
vn -0.5860 -0.8101 0.0161
vn -0.2039 -0.9447 0.2567
vn -0.0406 -0.9992 0.0057
vn -0.1279 -0.1185 -0.9847
vn -0.0569 -0.6267 -0.7772
vn -0.5265 -0.6361 -0.5642
vn -0.9207 -0.3097 -0.2375
vn -0.6272 -0.0733 -0.7754
vn -0.1561 -0.9590 -0.2364
vn -0.1327 0.0945 -0.9866
vn -0.7464 0.1446 -0.6496
vn -0.3949 0.6570 -0.6422
vn -0.3475 0.9326 0.0977
vn -0.1458 0.9827 0.1143
vn -0.4417 0.8940 0.0758
vn -0.9916 0.1224 -0.0425
vn -0.9749 -0.0239 -0.2215
vn -0.7143 0.6952 -0.0805
vn -0.0960 0.9718 -0.2153
vn -0.8655 0.4951 0.0763
vn -0.9336 0.2255 0.2786
vn -0.6442 0.2227 0.7317
vn -0.8773 0.4330 0.2071
vn -0.9558 -0.0662 0.2865
vn -0.6768 -0.2542 0.6909
vn -0.2555 0.9631 0.0843
vn 0.0016 0.9458 0.3248
vn -0.0076 0.9987 0.0495
vn -0.1941 0.7508 0.6314
vn -0.0333 0.7144 0.6990
vn -0.5526 0.8053 0.2145
vn -0.3777 0.4381 0.8157
vn -0.6250 0.7784 0.0592
vn -0.0511 -0.1479 0.9877
vn -0.0294 0.3037 0.9523
vn -0.2202 -0.2165 0.9511
vn 0.0385 -0.1569 0.9869
vn -0.0607 0.0792 0.9950
vn -0.7725 -0.3460 -0.5324
vn -0.4431 0.0604 -0.8945
vn -0.1109 -0.2376 -0.9650
vn 0.1514 0.1019 -0.9832
vn 0.1897 -0.1236 -0.9740
vn -0.0682 0.2823 -0.9569
vn 0.0957 0.9010 0.4232
vn 0.0289 0.4396 0.8977
vn -0.8693 -0.4383 0.2286
vn -0.2717 -0.7119 0.6476
vn -0.0163 -0.5693 0.8220
vn -0.1435 -0.9896 0.0040
vn -0.0158 -0.9949 0.0996
vn -0.4737 -0.8563 0.2060
vn -0.5495 -0.8295 -0.1000
vn 0.0704 0.9866 0.1474
vn 0.0528 0.9964 0.0668
vn 0.0343 0.9981 0.0505
vn -0.3051 0.8045 -0.5097
vn -0.0435 0.8761 -0.4801
vn -0.5244 0.8510 -0.0287
vn -0.3018 0.9520 0.0514
vn -0.6788 0.3673 -0.6359
vn -0.0550 0.9973 0.0489
vn -0.9023 -0.0255 -0.4304
vn -0.8976 0.4407 -0.0107
vn -0.9850 0.1669 -0.0446
vn -0.0170 -0.8557 -0.5171
vn -0.0936 -0.9479 -0.3045
vn -0.3241 -0.6843 -0.6533
vn 0.4898 0.4880 0.7225
vn 0.9116 0.0779 0.4036
vn 0.6881 0.6615 0.2981
vn 0.5408 -0.2468 0.8041
vn 0.9355 -0.3104 0.1686
vn 0.9887 0.1135 0.0978
vn 0.0646 0.8892 0.4530
vn 0.2435 0.9611 0.1304
vn 0.0598 0.9789 0.1952
vn 0.0536 0.4769 0.8773
vn 0.0789 0.9331 0.3509
vn 0.2045 0.1347 0.9696
vn -0.0135 -0.6539 0.7565
vn 0.7963 -0.0290 -0.6042
vn 0.7056 0.2189 -0.6739
vn 0.4575 -0.6811 0.5716
vn 0.6098 -0.7915 0.0404
vn -0.0410 -0.9355 0.3510
vn 0.0185 -0.9979 0.0617
vn 0.1064 -0.8064 -0.5818
vn 0.9367 -0.2674 -0.2262
vn 0.5259 -0.6571 -0.5401
vn 0.0502 0.9942 0.0954
vn 0.1574 0.9825 0.0999
vn 0.1235 0.7658 -0.6311
vn 0.4074 0.9080 0.0977
vn 0.9881 0.1531 0.0133
vn 0.9988 -0.0460 -0.0179
vn 0.9474 0.3145 -0.0598
vn 0.7889 0.6118 0.0578
vn 0.5610 0.8278 -0.0021
vn 0.5022 0.6365 -0.5854
vn 0.0400 0.9758 -0.2149
vn 0.0306 -0.9995 -0.0102
vn -0.5958 0.5823 0.5531
vn -0.7224 0.1665 0.6712
vn -0.1944 0.5193 0.8322
vn -0.6950 -0.5303 0.4857
vn -0.1458 -0.6947 0.7044
vn -0.4656 0.8850 -0.0015
vn -0.1688 0.9084 0.3825
vn -0.0828 0.9966 -0.0001
vn 0.4139 0.7674 0.4898
vn 0.6979 0.2419 0.6741
vn -0.8148 0.5798 0.0008
vn 0.7102 -0.7040 -0.0005
vn 0.7410 -0.4821 0.4674
vn 0.2036 -0.6902 0.6944
vn -0.7532 -0.4688 0.4614
vn -0.3997 0.3732 0.8372
vn -0.8793 0.2129 0.4260
vn -0.2183 -0.6886 0.6915
vn 0.1576 0.8041 0.5732
vn 0.4968 0.8679 0.0007
vn 0.0837 0.9965 -0.0002
vn -0.5263 0.8503 0.0004
vn -0.4155 0.8402 0.3484
vn 0.0031 0.8530 0.5219
vn 0.3354 0.9421 -0.0024
vn 0.1549 0.9879 0.0025
vn 0.9715 0.0110 0.2368
vn 0.5774 0.5774 -0.5772
vn 0.5772 0.5773 0.5775
vn 0.5773 -0.5766 0.5782
vn -0.5769 0.5781 -0.5770
vn -0.0309 -0.9995 0.0015
vn -0.0009 -0.9814 0.1921
vn -0.0785 -0.9969 0.0000
vn -0.5778 0.5767 0.5775
vn -0.0692 -0.9976 0.0003
vn -0.0032 0.8529 0.5221
vn -0.0001 0.2463 0.9692
vn -0.0001 -0.5548 0.8320
vn -0.0001 -0.5550 0.8318
vn -0.0130 0.7084 -0.7057
vn -0.0208 0.9782 -0.2066
vn -0.0197 0.3366 0.9415
vn -0.0598 0.0606 -0.9964
vn 0.8347 -0.5418 -0.0987
vn 0.6775 0.0355 0.7347
vn -0.0013 -0.6070 0.7947
vn 0.5674 0.0365 0.8227
vn 0.0823 -0.4626 0.8828
vn 0.2879 0.6011 0.7455
vn 0.8880 -0.3058 -0.3433
vn 0.1636 -0.9586 0.2331
vn -0.9791 0.2031 0.0026
vn -0.7672 -0.6414 -0.0010
vn -0.0771 -0.9970 -0.0024
vn 0.9676 0.2523 0.0016
vn 0.5375 0.8433 0.0020
vn 0.7667 -0.6420 -0.0017
vn 0.9775 0.2111 0.0014
vn 0.8413 0.1501 0.5193
vn 0.7089 -0.5220 0.4743
vn 0.5866 0.4171 0.6942
vn 0.8288 0.5596 0.0020
vn 0.1640 -0.6943 0.7008
vn -0.7098 -0.7044 -0.0011
vn 0.0771 -0.9970 -0.0024
vn 0.4897 0.7872 0.3748
vn -0.9644 0.2645 0.0003
vn -0.1462 0.9892 0.0027
vn -0.3167 0.9485 -0.0018
usemtl Default_OBJ
s 1
f 2/1/1 4/2/2 1/3/3
f 3/4/4 4/2/2 2/1/1
f 20/5/5 13/6/6 14/7/7
f 25/8/8 27/9/9 24/10/10
f 27/9/9 26/11/11 28/12/12
f 31/13/13 32/14/14 29/15/15
f 34/16/16 35/17/17 33/18/18
f 30/19/19 37/20/20 36/21/21
f 37/20/20 38/22/22 39/23/23
f 89/24/24 40/25/25 42/26/26
f 25/27/8 24/28/10 42/26/26
f 34/16/16 55/29/27 48/30/28
f 49/31/29 48/30/28 55/29/27
f 48/30/28 38/32/22 30/33/19
f 41/34/30 44/35/31 54/36/32
f 54/36/32 50/37/33 55/29/27
f 56/38/34 101/39/35 47/40/36
f 58/41/37 47/40/36 46/42/38
f 51/43/39 39/44/23 38/32/22
f 54/36/32 43/45/40 64/46/41
f 57/47/42 68/48/43 65/49/44
f 70/50/45 74/51/46 71/52/47
f 46/42/38 67/53/48 58/41/37
f 62/54/49 89/24/24 88/55/50
f 79/56/51 65/49/44 66/57/52
f 75/58/53 66/57/52 65/49/44
f 86/59/54 80/60/55 87/61/56
f 89/24/24 85/62/57 88/55/50
f 39/44/23 61/63/58 92/64/59
f 96/65/60 97/66/61 91/67/62
f 81/68/63 87/61/56 80/60/55
f 100/69/64 80/60/55 90/70/65
f 42/26/26 23/71/66 100/69/64
f 100/69/64 23/71/66 102/72/67
f 93/73/68 36/21/21 104/74/69
f 104/74/69 39/23/23 92/75/59
f 97/76/61 106/77/70 94/78/71
f 109/79/72 110/80/73 113/81/74
f 99/82/75 95/83/76 111/84/77
f 62/54/49 111/84/77 51/43/39
f 112/85/78 113/81/74 110/80/73
f 50/37/33 51/43/39 49/31/29
f 34/16/16 48/30/28 35/17/17
f 108/86/79 96/65/60 113/81/74
f 113/81/74 96/65/60 109/79/72
f 110/80/73 109/79/72 95/87/76
f 114/88/80 113/81/74 112/85/78
f 97/66/61 96/65/60 106/89/70
f 116/90/81 112/91/78 115/92/82
f 88/55/50 85/62/57 99/82/75
f 99/82/75 85/62/57 98/93/83
f 118/94/84 76/95/85 72/96/86
f 76/95/85 71/52/47 74/51/46
f 68/48/43 52/97/87 71/52/47
f 59/98/88 60/99/89 56/38/34
f 59/98/88 56/38/34 47/40/36
f 55/29/27 50/37/33 49/31/29
f 116/90/81 77/100/90 73/101/91
f 98/102/83 117/103/92 115/92/82
f 58/41/37 60/99/89 59/98/88
f 101/104/35 119/105/93 107/106/94
f 120/107/95 84/108/96 117/109/92
f 120/107/95 86/59/54 84/108/96
f 66/57/52 67/110/48 46/111/38
f 29/15/15 70/50/45 33/112/18
f 105/113/97 108/114/79 73/115/91
f 118/94/84 72/96/86 77/116/90
f 81/68/63 119/117/93 83/118/98
f 86/59/54 87/61/56 82/119/99
f 79/56/51 66/57/52 78/120/100
f 123/121/101 140/122/102 122/123/103
f 129/124/104 128/125/105 126/126/106
f 125/127/107 126/126/106 127/128/108
f 131/129/109 132/130/110 129/131/104
f 133/132/111 132/130/110 131/129/109
f 124/133/112 138/134/113 137/135/114
f 137/135/114 140/136/102 123/137/101
f 144/138/115 128/139/105 142/140/116
f 132/141/110 128/139/105 129/142/104
f 148/143/117 147/144/118 146/145/119
f 147/144/118 137/135/114 138/134/113
f 148/143/117 140/136/102 137/135/114
f 149/146/120 139/147/121 140/136/102
f 145/148/122 149/146/120 148/143/117
f 145/148/122 150/149/123 149/146/120
f 152/150/124 151/151/125 153/152/126
f 153/152/126 179/153/127 152/150/124
f 153/152/126 151/151/125 141/154/128
f 133/155/111 154/156/129 132/141/110
f 134/157/130 158/158/131 157/159/132
f 158/158/131 159/160/133 150/149/123
f 136/161/134 159/160/133 158/158/131
f 134/157/130 136/161/134 158/158/131
f 173/162/135 162/163/136 138/164/113
f 151/151/125 160/165/137 141/154/128
f 151/151/125 204/166/138 168/167/139
f 170/168/140 164/169/141 167/170/142
f 174/171/143 157/159/132 182/172/144
f 187/173/145 180/174/146 185/175/147
f 155/176/148 185/175/147 180/174/146
f 135/177/149 134/157/130 174/171/143
f 192/178/150 194/179/151 193/180/152
f 184/181/153 133/132/111 194/179/151
f 193/182/152 125/127/107 195/183/154
f 193/182/152 130/184/155 126/126/106
f 192/185/150 196/186/156 201/187/157
f 171/188/158 172/189/159 123/121/101
f 199/190/160 196/186/156 200/191/161
f 195/183/154 170/168/140 198/192/162
f 187/173/145 185/175/147 186/193/163
f 200/191/161 188/194/164 199/190/160
f 196/186/156 195/195/154 198/196/162
f 155/176/148 156/197/165 143/198/166
f 196/186/156 198/196/162 200/191/161
f 198/196/162 166/199/167 200/191/161
f 125/127/107 165/200/168 164/169/141
f 186/201/163 184/202/153 201/187/157
f 196/186/156 192/185/150 195/195/154
f 188/203/164 200/204/161 202/205/169
f 180/174/146 157/159/132 155/176/148
f 189/206/170 180/174/146 187/173/145
f 164/169/141 162/163/136 169/207/171
f 163/208/172 146/209/119 147/210/118
f 155/176/148 158/158/131 156/197/165
f 145/148/122 146/145/119 144/138/115
f 204/211/138 205/212/173 202/205/169
f 204/211/138 202/205/169 166/213/167
f 152/214/124 205/212/173 204/211/138
f 152/214/124 203/215/174 205/212/173
f 168/216/139 161/217/175 160/218/137
f 198/192/162 170/168/140 166/219/167
f 188/203/164 179/220/127 189/221/170
f 197/222/176 175/223/177 191/224/178
f 191/225/178 175/226/177 183/227/179
f 206/228/180 181/229/181 180/174/146
f 161/217/175 167/170/142 169/207/171
f 128/125/105 144/230/115 127/128/108
f 208/231/182 209/232/183 210/233/184
f 213/234/185 212/235/186 211/236/187
f 213/234/185 207/237/188 245/238/189
f 217/239/190 219/240/191 220/241/192
f 217/239/190 218/242/193 219/240/191
f 209/243/183 218/242/193 217/239/190
f 216/244/194 214/245/195 219/240/191
f 220/241/192 219/240/191 221/246/196
f 214/245/195 213/234/185 225/247/197
f 228/248/198 227/249/199 230/250/200
f 229/251/201 220/252/192 263/253/202
f 235/254/203 231/255/204 234/256/205
f 234/256/205 228/248/198 232/257/206
f 226/258/207 211/236/187 239/259/208
f 239/259/208 211/236/187 237/260/209
f 211/236/187 240/261/210 237/260/209
f 240/261/210 242/262/211 241/263/212
f 212/235/186 245/238/189 240/261/210
f 240/261/210 245/238/189 242/262/211
f 245/238/189 243/264/213 242/262/211
f 224/265/214 246/266/215 223/267/216
f 243/264/213 207/237/188 246/266/215
f 238/268/217 249/269/218 248/270/219
f 243/264/213 246/266/215 247/271/220
f 247/271/220 244/272/221 248/270/219
f 241/263/212 242/262/211 247/271/220
f 237/260/209 249/269/218 277/273/222
f 232/257/206 233/274/223 235/254/203
f 251/275/224 253/276/225 250/277/226
f 255/278/227 253/276/225 251/275/224
f 252/279/228 254/280/229 255/278/227
f 257/281/230 260/282/231 256/283/232
f 259/284/233 261/285/234 257/281/230
f 261/285/234 262/286/235 260/282/231
f 264/287/236 266/288/237 265/289/238
f 266/288/237 255/290/227 265/289/238
f 266/288/237 253/291/225 255/290/227
f 262/286/235 261/285/234 266/288/237
f 220/241/192 264/287/236 263/292/202
f 221/246/196 264/287/236 220/241/192
f 221/246/196 262/286/235 264/287/236
f 260/282/231 222/293/239 225/247/197
f 276/294/240 271/295/241 265/296/238
f 254/297/229 265/296/238 255/298/227
f 272/299/242 230/250/200 271/295/241
f 227/249/199 263/253/202 271/295/241
f 268/300/243 231/255/204 274/301/244
f 233/274/223 230/250/200 272/299/242
f 273/302/245 275/303/246 267/304/247
f 275/303/246 276/294/240 254/297/229
f 286/305/248 272/299/242 271/295/241
f 269/306/249 270/307/250 278/308/251
f 258/309/252 256/283/232 239/259/208
f 250/310/226 259/284/233 258/309/252
f 279/311/253 280/312/254 258/309/252
f 252/279/228 251/275/224 282/313/255
f 283/314/256 275/315/246 252/279/228
f 278/308/251 284/316/257 285/317/258
f 278/308/251 270/307/250 284/316/257
f 274/301/244 231/255/204 286/305/248
f 282/313/255 281/318/259 284/319/257
f 285/317/258 284/316/257 279/311/253
f 286/305/248 276/294/240 273/302/245
f 286/305/248 233/274/223 272/299/242
f 288/320/260 290/321/261 287/322/262
f 289/323/263 290/321/261 288/320/260
f 289/323/263 291/324/264 290/325/261
f 294/326/265 295/327/266 293/328/267
f 295/327/266 297/329/268 298/330/269
f 296/331/270 303/332/271 297/329/268
f 287/322/262 303/332/271 296/331/270
f 287/322/262 296/331/270 328/333/272
f 301/334/273 299/335/274 302/336/275
f 344/337/276 305/338/277 301/334/273
f 305/338/277 299/335/274 301/334/273
f 307/339/278 309/340/279 308/341/280
f 309/340/279 349/342/281 348/343/282
f 309/340/279 321/344/283 349/342/281
f 295/327/266 298/330/269 310/345/284
f 298/330/269 299/335/274 306/346/285
f 292/347/286 313/348/287 291/349/264
f 313/348/287 302/350/275 291/349/264
f 300/351/288 302/350/275 313/348/287
f 319/352/289 315/353/290 312/354/291
f 318/355/292 319/352/289 312/354/291
f 307/356/278 312/354/291 292/347/286
f 293/328/267 311/357/293 322/358/294
f 358/359/295 293/328/267 322/358/294
f 321/344/283 323/360/296 331/361/297
f 325/362/298 328/333/272 324/363/299
f 321/344/283 327/364/300 323/360/296
f 320/365/301 324/363/299 294/326/265
f 328/333/272 294/326/265 324/363/299
f 307/366/278 329/367/302 309/368/279
f 326/369/303 330/370/304 287/322/262
f 327/364/300 330/370/304 326/369/303
f 327/364/300 329/367/302 330/370/304
f 316/371/305 332/372/306 317/373/307
f 326/369/303 328/333/272 325/362/298
f 316/371/305 319/352/289 332/372/306
f 336/374/308 335/375/309 333/376/310
f 335/375/309 343/377/311 337/378/312
f 335/375/309 337/378/312 334/379/313
f 341/380/314 339/381/315 338/382/316
f 342/383/317 336/384/308 341/380/314
f 336/384/308 333/385/310 340/386/318
f 343/387/311 345/388/319 344/337/276
f 304/389/320 343/387/311 344/337/276
f 344/337/276 342/383/317 306/346/285
f 346/390/321 348/343/282 347/391/322
f 337/392/312 352/393/323 350/394/324
f 314/395/325 315/353/290 353/396/326
f 343/397/311 304/398/320 352/393/323
f 356/399/327 316/371/305 308/400/280
f 357/401/328 355/402/329 346/403/321
f 348/404/282 356/399/327 308/400/280
f 357/401/328 350/394/324 355/402/329
f 358/359/295 364/405/330 359/406/331
f 321/344/283 360/407/332 349/342/281
f 321/344/283 331/361/297 360/407/332
f 338/382/316 364/405/330 311/357/293
f 339/381/315 359/406/331 364/405/330
f 338/382/316 339/381/315 364/405/330
f 339/381/315 361/408/333 359/406/331
f 366/409/334 365/410/335 367/411/336
f 366/409/334 334/379/313 365/410/335
f 333/376/310 366/409/334 362/412/337
f 334/379/313 337/378/312 365/410/335
f 365/410/335 337/378/312 357/413/328
f 347/414/322 367/411/336 346/415/321
f 368/416/338 363/417/339 360/407/332
f 331/361/297 369/418/340 360/407/332
f 365/410/335 357/413/328 367/411/336
f 361/408/333 367/419/336 368/416/338
f 320/365/301 358/359/295 369/418/340
f 356/399/327 354/420/341 316/371/305
f 383/421/342 378/422/343 377/423/344
f 378/424/343 373/425/345 381/426/346
f 385/427/347 386/428/348 384/429/349
f 383/430/342 377/431/344 386/428/348
f 388/432/350 377/431/344 376/433/351
f 384/429/349 386/428/348 388/432/350
f 371/434/352 383/430/342 385/427/347
f 379/435/353 374/436/354 380/437/355
f 391/438/356 397/439/357 392/440/358
f 396/441/359 397/442/357 391/443/356
f 404/444/360 408/445/361 403/446/362
f 405/447/363 406/448/364 403/446/362
f 406/448/364 397/439/357 404/444/360
f 392/440/358 397/439/357 406/448/364
f 204/166/138 151/151/125 152/150/124
f 25/27/8 43/45/40 44/35/31
f 30/449/19 29/15/15 35/450/17
f 11/451/365 411/452/366 410/453/367
f 123/121/101 197/222/176 171/188/158
f 190/454/368 197/222/176 123/121/101
f 107/106/94 119/105/93 102/455/67
f 78/456/100 107/106/94 27/9/9
f 23/457/66 27/9/9 102/455/67
f 14/7/7 5/458/369 9/459/370 8/460/371
f 5/458/369 19/461/372 9/462/370
f 13/6/6 19/461/372 5/458/369 14/7/7
f 14/7/7 8/463/371 20/5/5
f 17/464/373 1/3/3 4/2/2 6/465/374
f 20/466/5 8/467/371 9/468/370
f 16/469/375 17/464/373 6/465/374
f 21/470/376 19/461/372 13/6/6 20/471/5
f 18/472/377 16/469/375 6/465/374
f 21/473/376 9/462/370 19/461/372
f 22/474/378 12/475/379 10/476/379 11/477/365
f 7/478/380 15/479/381 10/476/379 12/475/379
f 40/25/25 43/45/40 25/27/8 42/26/26
f 20/466/5 9/468/370 21/480/376
f 24/10/10 27/9/9 23/457/66
f 25/8/8 26/11/11 27/9/9
f 30/449/19 31/13/13 29/15/15
f 31/13/13 30/449/19 36/481/21
f 37/20/20 30/19/19 38/22/22
f 26/482/11 41/34/30 28/483/12
f 25/27/8 44/35/31 41/34/30 26/482/11
f 42/26/26 24/28/10 23/71/66
f 45/484/382 28/483/12 41/34/30
f 41/34/30 53/485/383 52/486/87 45/484/382
f 35/17/17 48/30/28 30/33/19
f 48/30/28 49/31/29 38/32/22
f 49/31/29 51/43/39 38/32/22
f 33/18/18 52/486/87 53/485/383
f 61/63/58 39/44/23 51/43/39 111/84/77
f 53/485/383 41/34/30 54/36/32
f 55/29/27 53/485/383 54/36/32
f 40/25/25 63/487/384 64/46/41 43/45/40
f 64/46/41 62/54/49 51/43/39
f 50/37/33 64/46/41 51/43/39
f 64/46/41 50/37/33 54/36/32
f 57/47/42 65/49/44 79/56/51 28/488/12
f 54/36/32 44/35/31 43/45/40
f 63/487/384 40/25/25 89/24/24
f 71/52/47 76/95/85 69/489/385 68/48/43
f 57/47/42 28/488/12 68/48/43
f 65/49/44 68/48/43 69/489/385
f 28/488/12 45/490/382 68/48/43
f 82/491/99 56/38/34 60/99/89 84/492/96
f 68/48/43 45/490/382 52/97/87
f 33/112/18 70/50/45 71/52/47
f 75/58/53 76/95/85 118/94/84
f 75/58/53 69/489/385 76/95/85
f 105/113/97 72/96/86 74/51/46
f 72/96/86 105/113/97 73/115/91
f 78/493/100 46/42/38 47/40/36
f 69/489/385 75/58/53 65/49/44
f 117/103/92 84/492/96 60/99/89
f 86/59/54 85/62/57 80/60/55
f 80/60/55 85/62/57 89/24/24 90/70/65
f 94/78/71 32/14/14 31/13/13 93/494/68
f 104/74/69 103/495/386 97/496/61 93/73/68
f 95/83/76 92/64/59 61/63/58
f 61/63/58 111/84/77 95/83/76
f 42/26/26 100/69/64 90/70/65
f 81/68/63 102/72/67 119/117/93
f 66/57/52 75/58/53 67/110/48
f 90/70/65 89/24/24 42/26/26
f 100/69/64 81/68/63 80/60/55
f 81/68/63 100/69/64 102/72/67
f 92/75/59 91/497/62 103/495/386 104/74/69
f 104/74/69 36/21/21 37/20/20
f 104/74/69 37/20/20 39/23/23
f 92/498/59 95/87/76 109/79/72 91/67/62
f 47/499/36 101/104/35 107/106/94 78/456/100
f 93/494/68 97/76/61 94/78/71
f 31/13/13 36/481/21 93/494/68
f 106/77/70 108/114/79 105/113/97 94/78/71
f 78/456/100 28/12/12 79/500/51
f 110/80/73 99/501/75 98/502/83 115/503/82
f 99/82/75 111/84/77 88/55/50
f 62/54/49 88/55/50 111/84/77
f 91/67/62 109/79/72 96/65/60
f 96/65/60 108/86/79 106/89/70
f 114/88/80 108/86/79 113/81/74
f 108/86/79 114/88/80 73/504/91
f 70/50/45 32/14/14 74/51/46
f 29/15/15 32/14/14 70/50/45
f 77/100/90 58/41/37 67/53/48 118/505/84
f 115/503/82 112/85/78 110/80/73
f 95/87/76 99/501/75 110/80/73
f 103/506/386 91/67/62 97/66/61
f 114/507/80 112/91/78 116/90/81
f 76/95/85 74/51/46 72/96/86
f 56/38/34 82/491/99 83/508/98 101/39/35
f 71/52/47 52/97/87 33/112/18
f 64/46/41 63/487/384 62/54/49
f 62/54/49 63/487/384 89/24/24
f 58/41/37 59/98/88 47/40/36
f 53/485/383 34/16/16 33/18/18
f 34/16/16 53/485/383 55/29/27
f 116/90/81 58/41/37 77/100/90
f 117/103/92 60/99/89 115/92/82
f 117/109/92 98/93/83 85/62/57 120/107/95
f 83/118/98 119/117/93 101/509/35
f 84/108/96 86/59/54 82/119/99
f 78/120/100 66/57/52 46/111/38
f 35/450/17 29/15/15 33/112/18
f 32/14/14 94/78/71 74/51/46
f 114/507/80 116/90/81 73/101/91
f 73/115/91 77/116/90 72/96/86
f 115/92/82 60/99/89 58/41/37 116/90/81
f 83/118/98 82/119/99 87/61/56 81/68/63
f 139/147/121 136/161/134 122/510/103 140/136/102
f 120/107/95 85/62/57 86/59/54
f 67/110/48 75/58/53 118/94/84
f 74/51/46 94/78/71 105/113/97
f 123/121/101 172/189/159 124/511/112
f 127/128/108 126/126/106 128/125/105
f 126/126/106 130/184/155 129/124/104
f 130/512/155 131/129/109 129/131/104
f 130/512/155 133/132/111 131/129/109
f 134/157/130 135/177/149 136/161/134
f 136/161/134 139/147/121 159/160/133
f 135/177/149 121/513/387 136/161/134
f 144/230/115 146/209/119 163/208/172 127/128/108
f 121/513/387 122/510/103 136/161/134
f 123/137/101 124/133/112 137/135/114
f 132/141/110 143/198/166 142/140/116
f 142/140/116 128/139/105 132/141/110
f 145/148/122 148/143/117 146/145/119
f 147/144/118 148/143/117 137/135/114
f 148/143/117 149/146/120 140/136/102
f 154/156/129 184/514/153 185/175/147 155/176/148
f 141/154/128 191/515/178 153/152/126
f 138/164/113 124/516/112 172/517/159 173/162/135
f 155/176/148 143/198/166 154/156/129
f 143/198/166 132/141/110 154/156/129
f 159/160/133 149/146/120 150/149/123
f 159/160/133 139/147/121 149/146/120
f 163/208/172 138/164/113 162/163/136 165/200/168
f 183/518/179 178/519/388 153/152/126 191/515/178
f 163/208/172 147/210/118 138/164/113
f 127/128/108 163/208/172 165/200/168
f 166/219/167 170/168/140 167/170/142
f 141/154/128 160/165/137 171/520/158
f 174/171/143 175/226/177 176/521/389
f 173/162/135 169/207/171 162/163/136
f 153/152/126 178/519/388 179/153/127
f 181/229/181 182/172/144 180/174/146
f 173/162/135 160/218/137 161/217/175 169/207/171
f 178/519/388 183/518/179 177/522/390
f 180/174/146 182/172/144 157/159/132
f 174/171/143 134/157/130 157/159/132
f 181/229/181 174/171/143 182/172/144
f 15/479/381 7/478/380 6/523/374 4/524/2
f 125/127/107 193/182/152 126/126/106
f 133/155/111 184/514/153 154/156/129
f 186/193/163 185/175/147 184/514/153
f 175/226/177 190/525/368 176/521/389
f 135/177/149 174/171/143 176/521/389 121/513/387
f 197/222/176 191/224/178 141/526/128 171/188/158
f 190/525/368 121/513/387 176/521/389
f 193/180/152 194/179/151 130/512/155
f 194/179/151 133/132/111 130/512/155
f 201/527/157 184/181/153 194/179/151
f 164/169/141 170/168/140 195/183/154 125/127/107
f 190/454/368 122/123/103 121/528/387
f 199/190/160 188/194/164 189/529/170 187/530/145
f 145/148/122 142/140/116 143/198/166
f 144/138/115 142/140/116 145/148/122
f 125/127/107 127/128/108 165/200/168
f 150/149/123 143/198/166 156/197/165 158/158/131
f 199/190/160 187/530/145 186/201/163
f 195/195/154 192/185/150 193/531/152
f 199/190/160 186/201/163 201/187/157
f 194/532/151 192/185/150 201/187/157
f 196/186/156 199/190/160 201/187/157
f 180/174/146 189/206/170 179/533/127
f 167/170/142 164/169/141 169/207/171
f 160/165/137 151/151/125 168/167/139
f 162/163/136 164/169/141 165/200/168
f 188/203/164 202/205/169 205/212/173 203/215/174
f 157/159/132 158/158/131 155/176/148
f 145/148/122 143/198/166 150/149/123
f 188/203/164 203/215/174 179/220/127
f 152/214/124 179/220/127 203/215/174
f 178/534/388 177/535/390 181/229/181
f 179/533/127 178/534/388 206/228/180
f 179/533/127 206/228/180 180/174/146
f 166/213/167 202/205/169 200/204/161
f 174/171/143 177/535/390 183/227/179 175/226/177
f 197/222/176 190/454/368 175/223/177
f 172/517/159 171/536/158 160/218/137 173/162/135
f 177/535/390 174/171/143 181/229/181
f 206/228/180 178/534/388 181/229/181
f 167/170/142 168/216/139 204/537/138 166/219/167
f 207/237/188 213/234/185 215/538/391 216/244/194
f 161/217/175 168/216/139 167/170/142
f 208/231/182 207/237/188 209/232/183
f 207/237/188 216/244/194 209/232/183
f 214/245/195 215/538/391 213/234/185
f 214/245/195 216/244/194 215/538/391
f 214/245/195 222/293/239 221/246/196 219/240/191
f 212/235/186 213/234/185 245/238/189
f 218/242/193 209/243/183 216/244/194
f 218/242/193 216/244/194 219/240/191
f 227/249/199 228/248/198 210/539/184 229/251/201
f 223/540/216 268/541/243 224/265/214
f 225/247/197 222/293/239 214/245/195
f 226/258/207 225/247/197 211/236/187
f 225/247/197 213/234/185 211/236/187
f 230/250/200 233/274/223 232/257/206 228/248/198
f 210/539/184 209/542/183 229/251/201
f 229/251/201 209/542/183 217/543/190
f 229/251/201 217/543/190 220/252/192
f 227/249/199 229/251/201 263/253/202
f 234/256/205 231/255/204 223/544/216
f 241/263/212 248/270/219 249/269/218 237/260/209
f 236/545/392 234/256/205 223/544/216
f 236/545/392 210/539/184 234/256/205
f 234/256/205 210/539/184 228/248/198
f 224/265/214 238/268/217 248/270/219
f 237/260/209 240/261/210 241/263/212
f 224/265/214 248/270/219 244/272/221
f 211/236/187 212/235/186 240/261/210
f 245/238/189 207/237/188 243/264/213
f 246/266/215 236/546/392 223/267/216
f 246/266/215 207/237/188 208/231/182
f 236/546/392 208/231/182 210/233/184
f 246/266/215 208/231/182 236/546/392
f 224/265/214 247/271/220 246/266/215
f 244/272/221 247/271/220 224/265/214
f 242/262/211 243/264/213 247/271/220
f 257/281/230 256/283/232 258/309/252 259/284/233
f 248/270/219 241/263/212 247/271/220
f 238/268/217 277/273/222 249/269/218
f 234/256/205 232/257/206 235/254/203
f 235/254/203 233/274/223 231/255/204
f 252/279/228 255/278/227 251/275/224
f 268/541/243 267/547/247 270/307/250 269/306/249
f 257/281/230 261/285/234 260/282/231
f 259/284/233 253/291/225 261/285/234
f 250/310/226 253/291/225 259/284/233
f 263/292/202 264/287/236 265/289/238
f 266/288/237 261/285/234 253/291/225
f 264/287/236 262/286/235 266/288/237
f 221/246/196 222/293/239 262/286/235
f 225/247/197 226/258/207 256/283/232 260/282/231
f 269/306/249 224/265/214 268/541/243
f 260/282/231 262/286/235 222/293/239
f 278/308/251 238/268/217 224/265/214 269/306/249
f 254/297/229 276/294/240 265/296/238
f 271/295/241 263/253/202 265/296/238
f 230/250/200 227/249/199 271/295/241
f 268/300/243 223/544/216 231/255/204
f 268/300/243 273/302/245 267/304/247
f 268/300/243 274/301/244 273/302/245
f 276/294/240 286/305/248 271/295/241
f 237/260/209 277/273/222 279/311/253
f 237/260/209 279/311/253 239/259/208
f 250/310/226 258/309/252 280/312/254 281/548/259
f 239/259/208 256/283/232 226/258/207
f 239/259/208 279/311/253 258/309/252
f 283/314/256 270/549/250 267/550/247 275/315/246
f 251/275/224 250/277/226 281/318/259 282/313/255
f 282/313/255 283/314/256 252/279/228
f 282/313/255 284/319/257 270/549/250 283/314/256
f 252/279/228 275/315/246 254/280/229
f 303/332/271 299/335/274 298/330/269 297/329/268
f 238/268/217 278/308/251 285/317/258
f 238/268/217 285/317/258 277/273/222
f 274/301/244 286/305/248 273/302/245
f 284/316/257 281/548/259 280/312/254
f 279/311/253 284/316/257 280/312/254
f 277/273/222 285/317/258 279/311/253
f 273/302/245 276/294/240 275/303/246
f 286/305/248 231/255/204 233/274/223
f 289/323/263 292/551/286 291/324/264
f 295/327/266 296/331/270 297/329/268
f 294/326/265 296/331/270 295/327/266
f 301/334/273 300/552/288 304/389/320 344/337/276
f 287/322/262 290/321/261 303/332/271
f 294/326/265 328/333/272 296/331/270
f 300/552/288 301/334/273 302/336/275
f 302/336/275 290/321/261 291/553/264
f 302/336/275 303/332/271 290/321/261
f 302/336/275 299/335/274 303/332/271
f 289/323/263 288/320/260 330/370/304 329/367/302
f 305/338/277 306/346/285 299/335/274
f 327/364/300 321/344/283 309/340/279
f 308/341/280 309/340/279 348/343/282
f 310/345/284 298/330/269 306/346/285
f 293/328/267 295/327/266 311/357/293
f 292/347/286 312/354/291 313/348/287
f 312/354/291 314/395/325 313/348/287
f 314/395/325 300/351/288 313/348/287
f 312/354/291 315/353/290 314/395/325
f 314/395/325 304/398/320 300/351/288
f 308/400/280 316/371/305 317/373/307
f 319/352/289 316/371/305 315/353/290
f 308/400/280 317/373/307 307/356/278
f 307/356/278 318/355/292 312/354/291
f 358/359/295 320/365/301 293/328/267
f 320/365/301 325/362/298 324/363/299
f 293/328/267 320/365/301 294/326/265
f 328/333/272 326/369/303 287/322/262
f 327/364/300 309/368/279 329/367/302
f 287/322/262 330/370/304 288/320/260
f 292/551/286 289/323/263 329/367/302 307/366/278
f 320/365/301 331/361/297 323/360/296 325/362/298
f 327/364/300 325/362/298 323/360/296
f 327/364/300 326/369/303 325/362/298
f 317/373/307 318/355/292 307/356/278
f 317/373/307 332/372/306 318/355/292
f 342/383/317 341/380/314 310/345/284 306/346/285
f 332/372/306 319/352/289 318/355/292
f 333/376/310 334/379/313 366/409/334
f 333/376/310 335/375/309 334/379/313
f 335/375/309 336/374/308 343/377/311
f 339/381/315 341/380/314 340/386/318
f 341/380/314 336/384/308 340/386/318
f 340/386/318 333/385/310 339/381/315
f 343/387/311 336/384/308 345/388/319
f 344/337/276 345/388/319 342/383/317
f 342/383/317 345/388/319 336/384/308
f 305/338/277 344/337/276 306/346/285
f 348/343/282 349/342/281 347/391/322
f 338/382/316 311/357/293 295/327/266 310/345/284
f 338/382/316 310/345/284 341/380/314
f 314/395/325 351/554/393 352/393/323 304/398/320
f 350/394/324 352/393/323 351/554/393
f 337/392/312 343/397/311 352/393/323
f 353/396/326 351/554/393 314/395/325
f 315/353/290 316/371/305 354/420/341 353/396/326
f 351/554/393 356/399/327 355/402/329 350/394/324
f 346/403/321 355/402/329 348/404/282
f 355/402/329 356/399/327 348/404/282
f 353/396/326 354/420/341 356/399/327 351/554/393
f 357/401/328 337/392/312 350/394/324
f 362/555/337 361/408/333 339/381/315 333/385/310
f 322/358/294 311/357/293 364/405/330
f 358/359/295 322/358/294 364/405/330
f 361/408/333 362/555/337 367/419/336
f 349/342/281 360/407/332 363/417/339
f 349/342/281 363/417/339 347/391/322
f 347/391/322 363/417/339 368/416/338 367/419/336
f 362/412/337 366/409/334 367/411/336
f 346/415/321 367/411/336 357/413/328
f 380/556/355 376/557/351 378/422/343 381/558/346
f 369/418/340 368/416/338 360/407/332
f 331/361/297 320/365/301 369/418/340
f 368/416/338 359/406/331 361/408/333
f 369/418/340 358/359/295 359/406/331
f 369/418/340 359/406/331 368/416/338
f 380/556/355 374/559/354 376/557/351
f 377/423/344 378/422/343 376/557/351
f 378/424/343 370/560/394 372/561/395 373/425/345
f 381/562/346 382/563/396 379/435/353 380/437/355
f 372/564/395 382/563/396 381/562/346 373/565/345
f 388/432/350 376/433/351 375/566/397 387/567/398
f 387/567/398 384/429/349 388/432/350
f 385/427/347 383/430/342 386/428/348
f 388/432/350 386/428/348 377/431/344
f 379/568/353 375/566/397 376/433/351 374/569/354
f 393/570/399 389/571/400 398/572/401 407/573/402
f 395/574/403 398/572/401 389/571/400 390/575/404
f 395/576/403 397/442/357 396/441/359 401/577/405
f 395/574/403 401/578/405 407/573/402 398/572/401
f 399/579/406 400/580/407 401/581/405 396/582/359
f 401/581/405 400/580/407 393/583/399 407/584/402
f 399/579/406 396/582/359 391/585/356
f 390/575/404 408/445/361 402/586/408 395/574/403
f 406/448/364 405/447/363 394/587/409 392/440/358
f 404/444/360 395/574/403 402/586/408
f 404/444/360 402/586/408 408/445/361
f 397/439/357 395/588/403 404/444/360
f 399/589/406 391/438/356 392/440/358 394/587/409
f 403/446/362 406/448/364 404/444/360
f 383/430/342 371/434/352 370/560/394 378/424/343
f 410/453/367 409/590/410 22/591/378 11/451/365
f 22/591/378 409/590/410 412/592/411
f 122/123/103 190/454/368 123/121/101
f 27/9/9 107/106/94 102/455/67
f 28/12/12 78/456/100 27/9/9
